0.15M;	90;	0.1
1M;		90;	0.1
2M;		90;	0.1
3M;		90;	0.1
4M;		90;	0.1
5M;		90;	0.1
6M;		90;	0.1
7M;		90;	0.1
8M;		90;	0.1
9M;		90;	0.1
10M;	90;	0.1
11M;	90;	0.1
12M;	90;	0.1
13M;	90;	0.1
14M;	90;	0.1
15M;	90;	0.1
16M;	90;	0.1
17M;	90;	0.1
18M;	90;	0.1
19M;	90;	0.1
20M;	90;	0.1
21M;	90;	0.1
22M;	90;	0.1
23M;	90;	0.1
24M;	90;	0.1
25M;	90;	0.1
26M;	90;	0.1
27M;	90;	0.1
28M;	90;	0.1
29M;	90;	0.1
30M;	90;	0.1
31M;	90;	0.1
32M;	90;	0.1
33M;	90;	0.1
34M;	90;	0.1
35M;	90;	0.1
36M;	90;	0.1
37M;	90;	0.1
38M;	90;	0.1
39M;	90;	0.1
40M;	90;	0.1
41M;	90;	0.1
42M;	90;	0.1
43M;	90;	0.1
44M;	90;	0.1
45M;	90;	0.1
46M;	90;	0.1
47M;	90;	0.1
48M;	90;	0.1
49M;	90;	0.1
50M;	90;	0.1
51M;	90;	0.1
52M;	90;	0.1
53M;	90;	0.1
54M;	90;	0.1
55M;	90;	0.1
56M;	90;	0.1
57M;	90;	0.1
58M;	90;	0.1
59M;	90;	0.1
60M;	90;	0.1
61M;	90;	0.1
62M;	90;	0.1
63M;	90;	0.1
64M;	90;	0.1
65M;	90;	0.1
66M;	90;	0.1
67M;	90;	0.1
68M;	90;	0.1
69M;	90;	0.1
70M;	90;	0.1
71M;	90;	0.1
72M;	90;	0.1
73M;	90;	0.1
74M;	90;	0.1
75M;	90;	0.1
76M;	90;	0.1
77M;	90;	0.1
78M;	90;	0.1
79M;	90;	0.1
80M;	90;	0.1
81M;	90;	0.1
82M;	90;	0.1
83M;	90;	0.1
84M;	90;	0.1
85M;	90;	0.1
86M;	90;	0.1
87M;	90;	0.1
88M;	90;	0.1
89M;	90;	0.1
90M;	90;	0.1
91M;	90;	0.1
92M;	90;	0.1
93M;	90;	0.1
94M;	90;	0.1
95M;	90;	0.1
96M;	90;	0.1
97M;	90;	0.1
98M;	90;	0.1
99M;	90;	0.1
100M;	90;	0.1
101M;	90;	0.1
102M;	90;	0.1
103M;	90;	0.1
104M;	90;	0.1
105M;	90;	0.1
106M;	90;	0.1
107M;	90;	0.1
108M;	90;	0.1
109M;	90;	0.1
110M;	90;	0.1
111M;	90;	0.1
112M;	90;	0.1
113M;	90;	0.1
114M;	90;	0.1
115M;	90;	0.1
116M;	90;	0.1
117M;	90;	0.1
118M;	90;	0.1
119M;	90;	0.1
120M;	90;	0.1
121M;	90;	0.1
122M;	90;	0.1
123M;	90;	0.1
124M;	90;	0.1
125M;	90;	0.1
126M;	90;	0.1
127M;	90;	0.1
128M;	90;	0.1
129M;	90;	0.1
130M;	90;	0.1
131M;	90;	0.1
132M;	90;	0.1
133M;	90;	0.1
134M;	90;	0.1
135M;	90;	0.1
136M;	90;	0.1
137M;	90;	0.1
138M;	90;	0.1
139M;	90;	0.1
140M;	90;	0.1
141M;	90;	0.1
142M;	90;	0.1
143M;	90;	0.1
144M;	90;	0.1
145M;	90;	0.1
146M;	90;	0.1
147M;	90;	0.1
148M;	90;	0.1
149M;	90;	0.1
150M;	90;	0.1
151M;	90;	0.1
152M;	90;	0.1
153M;	90;	0.1
154M;	90;	0.1
155M;	90;	0.1
156M;	90;	0.1
157M;	90;	0.1
158M;	90;	0.1
159M;	90;	0.1
160M;	90;	0.1
161M;	90;	0.1
162M;	90;	0.1
163M;	90;	0.1
164M;	90;	0.1
165M;	90;	0.1
166M;	90;	0.1
167M;	90;	0.1
168M;	90;	0.1
169M;	90;	0.1
170M;	90;	0.1
171M;	90;	0.1
172M;	90;	0.1
173M;	90;	0.1
174M;	90;	0.1
175M;	90;	0.1
176M;	90;	0.1
177M;	90;	0.1
178M;	90;	0.1
179M;	90;	0.1
180M;	90;	0.1
181M;	90;	0.1
182M;	90;	0.1
183M;	90;	0.1
184M;	90;	0.1
185M;	90;	0.1
186M;	90;	0.1
187M;	90;	0.1
188M;	90;	0.1
189M;	90;	0.1
190M;	90;	0.1
191M;	90;	0.1
192M;	90;	0.1
193M;	90;	0.1
194M;	90;	0.1
195M;	90;	0.1
196M;	90;	0.1
197M;	90;	0.1
198M;	90;	0.1
199M;	90;	0.1
200M;	90;	0.1
201M;	90;	0.1
202M;	90;	0.1
203M;	90;	0.1
204M;	90;	0.1
205M;	90;	0.1
206M;	90;	0.1
207M;	90;	0.1
208M;	90;	0.1
209M;	90;	0.1
210M;	90;	0.1
211M;	90;	0.1
212M;	90;	0.1
213M;	90;	0.1
214M;	90;	0.1
215M;	90;	0.1
216M;	90;	0.1
217M;	90;	0.1
218M;	90;	0.1
219M;	90;	0.1
220M;	90;	0.1
221M;	90;	0.1
222M;	90;	0.1
223M;	90;	0.1
224M;	90;	0.1
225M;	90;	0.1
226M;	90;	0.1
227M;	90;	0.1
228M;	90;	0.1
229M;	90;	0.1
230M;	90;	0.1