0.15M;	-30.66;		0.1
1M;		-30.65;		0.1
2M;		-30.55;		0.1
3M;		-30.65;		0.1
4M;		-30.44;		0.1
5M;		-30.01;		0.1
6M;		-29.53;		0.1
7M;		-29.08;		0.1
8M;		-28.38;		0.1
9M;		-27.60;		0.1
10M;	-26.77;		0.1
11M;	-25.70;		0.1
12M;	-24.57;		0.1
13M;	-23.35;		0.1
14M;	-22.11;		0.1
15M;	-21.13;		0.1
16M;	-20.67;		0.1
17M;	-21.11;		0.1
18M;	-22.26;		0.1
19M;	-23.80;		0.1
20M;	-25.50;		0.1
21M;	-27.01;		0.1
22M;	-28.46;		0.1
23M;	-29.66;		0.1
24M;	-30.69;		0.1
25M;	-31.63;		0.1
26M;	-32.35;		0.1
27M;	-33.06;		0.1
28M;	-33.55;		0.1
29M;	-34.02;		0.1
30M;	-34.49;		0.1
31M;	-34.60;		0.1
32M;	-34.78;		0.1
33M;	-34.95;		0.1
34M;	-34.99;		0.1
35M;	-34.92;		0.1
36M;	-34.82;		0.1
37M;	-34.74;		0.1
38M;	-34.60;		0.1
39M;	-34.43;		0.1
40M;	-34.36;		0.1
41M;	-34.26;		0.1
42M;	-34.16;		0.1
43M;	-34.10;		0.1
44M;	-34.06;		0.1
45M;	-34.03;		0.1
46M;	-33.95;		0.1
47M;	-33.94;		0.1
48M;	-33.93;		0.1
49M;	-33.85;		0.1
50M;	-33.86;		0.1
51M;	-33.85;		0.1
52M;	-33.86;		0.1
53M;	-33.85;		0.1
54M;	-33.94;		0.1
55M;	-33.95;		0.1
56M;	-33.96;		0.1
57M;	-34.10;		0.1
58M;	-34.19;		0.1
59M;	-34.19;		0.1
60M;	-34.21;		0.1
61M;	-34.16;		0.1
62M;	-33.78;		0.1
63M;	-32.97;		0.1
64M;	-32.73;		0.1
65M;	-33.00;		0.1
66M;	-32.85;		0.1
67M;	-32.94;		0.1
68M;	-33.54;		0.1
69M;	-34.29;		0.1
70M;	-35.09;		0.1
71M;	-35.78;		0.1
72M;	-36.09;		0.1
73M;	-35.93;		0.1
74M;	-35.45;		0.1
75M;	-34.99;		0.1
76M;	-34.76;		0.1
77M;	-34.56;		0.1
78M;	-34.33;		0.1
79M;	-34.52;		0.1
80M;	-34.71;		0.1
81M;	-34.52;		0.1
82M;	-34.24;		0.1
83M;	-34.14;		0.1
84M;	-33.03;		0.1
85M;	-32.38;		0.1
86M;	-32.22;		0.1
87M;	-31.97;		0.1
88M;	-31.65;		0.1
89M;	-31.35;		0.1
90M;	-31.01;		0.1
91M;	-30.75;		0.1
92M;	-30.57;		0.1
93M;	-30.47;		0.1
94M;	-30.46;		0.1
95M;	-30.72;		0.1
96M;	-30.95;		0.1
97M;	-31.13;		0.1
98M;	-31.28;		0.1
99M;	-31.18;		0.1
100M;	-30.83;		0.1
101M;	-30.61;		0.1
102M;	-30.63;		0.1
103M;	-30.81;		0.1
104M;	-31.05;		0.1
105M;	-30.97;		0.1
106M;	-30.25;		0.1
107M;	-28.67;		0.1
108M;	-26.95;		0.1
109M;	-25.74;		0.1
110M;	-25.67;		0.1
111M;	-26.11;		0.1
112M;	-26.72;		0.1
113M;	-27.16;		0.1
114M;	-27.47;		0.1
115M;	-27.71;		0.1
116M;	-27.98;		0.1
117M;	-28.19;		0.1
118M;	-28.33;		0.1
119M;	-28.63;		0.1
120M;	-28.89;		0.1
121M;	-29.15;		0.1
122M;	-29.54;		0.1
123M;	-29.82;		0.1
124M;	-30.13;		0.1
125M;	-30.36;		0.1
126M;	-30.79;		0.1
127M;	-31.12;		0.1
128M;	-31.26;		0.1
129M;	-31.47;		0.1
130M;	-31.58;		0.1
131M;	-31.57;		0.1
132M;	-31.49;		0.1
133M;	-31.55;		0.1
134M;	-31.87;		0.1
135M;	-32.02;		0.1
136M;	-32.05;		0.1
137M;	-32.14;		0.1
138M;	-32.23;		0.1
139M;	-32.40;		0.1
140M;	-32.66;		0.1
141M;	-32.86;		0.1
142M;	-32.93;		0.1
143M;	-33.16;		0.1
144M;	-33.27;		0.1
145M;	-33.33;		0.1
146M;	-33.39;		0.1
147M;	-33.36;		0.1
148M;	-33.22;		0.1
149M;	-32.94;		0.1
150M;	-32.77;		0.1
151M;	-32.56;		0.1
152M;	-32.29;		0.1
153M;	-32.15;		0.1
154M;	-31.91;		0.1
155M;	-31.64;		0.1
156M;	-31.38;		0.1
157M;	-31.23;		0.1
158M;	-31.12;		0.1
159M;	-31.06;		0.1
160M;	-31.16;		0.1
161M;	-31.29;		0.1
162M;	-31.53;		0.1
163M;	-31.91;		0.1
164M;	-32.48;		0.1
165M;	-33.13;		0.1
166M;	-33.77;		0.1
167M;	-34.48;		0.1
168M;	-35.06;		0.1
169M;	-35.57;		0.1
170M;	-36.09;		0.1
171M;	-36.60;		0.1
172M;	-37.00;		0.1
173M;	-37.32;		0.1
174M;	-37.68;		0.1
175M;	-37.93;		0.1
176M;	-38.07;		0.1
177M;	-38.19;		0.1
178M;	-38.24;		0.1
179M;	-38.17;		0.1
180M;	-38.02;		0.1
181M;	-37.92;		0.1
182M;	-37.70;		0.1
183M;	-37.41;		0.1
184M;	-37.14;		0.1
185M;	-36.82;		0.1
186M;	-36.47;		0.1
187M;	-36.10;		0.1
188M;	-35.76;		0.1
189M;	-35.39;		0.1
190M;	-35.03;		0.1
191M;	-34.72;		0.1
192M;	-34.38;		0.1
193M;	-34.05;		0.1
194M;	-33.82;		0.1
195M;	-33.68;		0.1
196M;	-33.50;		0.1
197M;	-33.36;		0.1
198M;	-33.25;		0.1
199M;	-33.20;		0.1
200M;	-33.17;		0.1
201M;	-33.21;		0.1
202M;	-33.28;		0.1
203M;	-33.38;		0.1
204M;	-33.48;		0.1
205M;	-33.70;		0.1
206M;	-33.93;		0.1
207M;	-34.11;		0.1
208M;	-34.34;		0.1
209M;	-34.45;		0.1
210M;	-34.46;		0.1
211M;	-34.38;		0.1
212M;	-34.37;		0.1
213M;	-34.35;		0.1
214M;	-34.33;		0.1
215M;	-34.37;		0.1
216M;	-34.36;		0.1
217M;	-34.33;		0.1
218M;	-34.30;		0.1
219M;	-34.28;		0.1
220M;	-34.29;		0.1
221M;	-34.34;		0.1
222M;	-34.43;		0.1
223M;	-34.36;		0.1
224M;	-34.18;		0.1
225M;	-33.90;		0.1
226M;	-33.51;		0.1
227M;	-32.92;		0.1
228M;	-32.38;		0.1
229M;	-31.76;		0.1
230M;	-31.09;		0.1