0.15M;	1;	-40.25;		0.1
1M;		1;	-40.24;		0.1
2M;		1;	-40.14;		0.1
3M;		1;	-40.24;		0.1
4M;		1;	-40.03;		0.1
5M;		1;	-39.6;		0.1
6M;		1;	-39.12;		0.1
7M;		1;	-38.67;		0.1
8M;		1;	-37.97;		0.1
9M;		1;	-37.19;		0.1
10M;	1;	-36.36;		0.1
11M;	1;	-35.29;		0.1
12M;	1;	-34.16;		0.1
13M;	1;	-32.94;		0.1
14M;	1;	-31.7;		0.1
15M;	1;	-30.72;		0.1
16M;	1;	-30.26;		0.1
17M;	1;	-30.7;		0.1
18M;	1;	-31.85;		0.1
19M;	1;  -33.39;		0.1
20M;	1;	-35.09;		0.1
21M;	1;	-36.6;		0.1
22M;	1;	-38.05;		0.1
23M;	1;	-39.25;		0.1
24M;	1;	-40.28;		0.1
25M;	1;	-41.22;		0.1
26M;	1;	-41.94;		0.1
27M;	1;	-42.65;		0.1
28M;	1;	-43.14;		0.1
29M;	1;	-43.61;		0.1
30M;	1;	-44.08;		0.1
31M;	1;	-44.19;		0.1
32M;	1;	-44.37;		0.1
33M;	1;	-44.54;		0.1
34M;	1;	-44.58;		0.1
35M;	1;	-44.51;		0.1
36M;	1;	-44.41;		0.1
37M;	1;	-44.33;		0.1
38M;	1;	-44.19;		0.1
39M;	1;  -44.02;		0.1
40M;	1;	-43.95;		0.1
41M;	1;	-43.85;		0.1
42M;	1;	-43.75;		0.1
43M;	1;	-43.69;		0.1
44M;	1;	-43.65;		0.1
45M;	1;	-43.62;		0.1
46M;	1;	-43.54;		0.1
47M;	1;	-43.53;		0.1
48M;	1;	-43.52;		0.1
49M;	1;	-43.44;		0.1
50M;	1;	-43.45;		0.1
51M;	1;	-43.44;		0.1
52M;	1;	-43.45;		0.1
53M;	1;	-43.44;		0.1
54M;	1;	-43.53;		0.1
55M;	1;	-43.54;		0.1
56M;	1;	-43.55;		0.1
57M;	1;	-43.69;		0.1
58M;	1;	-43.78;		0.1
59M;	1;  -43.78;		0.1
60M;	1;	-43.8;		0.1
61M;	1;	-43.75;		0.1
62M;	1;	-43.37;		0.1
63M;	1;	-42.56;		0.1
64M;	1;	-42.32;		0.1
65M;	1;	-42.59;		0.1
66M;	1;	-42.44;		0.1
67M;	1;	-42.53;		0.1
68M;	1;	-43.13;		0.1
69M;	1;	-43.88;		0.1
70M;	1;	-44.68;		0.1
71M;	1;	-45.37;		0.1
72M;	1;	-45.68;		0.1
73M;	1;	-45.52;		0.1
74M;	1;	-45.04;		0.1
75M;	1;	-44.58;		0.1
76M;	1;	-44.35;		0.1
77M;	1;	-44.15;		0.1
78M;	1;	-43.92;		0.1
79M;	1;  -44.11;		0.1
80M;	1;	-44.3;		0.1
81M;	1;	-44.11;		0.1
82M;	1;	-43.83;		0.1
83M;	1;	-43.73;		0.1
84M;	1;	-42.62;		0.1
85M;	1;	-41.97;		0.1
86M;	1;	-41.81;		0.1
87M;	1;	-41.56;		0.1
88M;	1;	-41.24;		0.1
89M;	1;	-40.94;		0.1
90M;	1;	-40.6;		0.1
91M;	1;	-40.34;		0.1
92M;	1;	-40.16;		0.1
93M;	1;	-40.06;		0.1
94M;	1;	-40.05;		0.1
95M;	1;	-40.31;		0.1
96M;	1;	-40.54;		0.1
97M;	1;	-40.72;		0.1
98M;	1;	-40.87;		0.1
99M;	1;  -40.77;		0.1
100M;	1;	-40.42;		0.1
101M;	1;	-40.2;		0.1
102M;	1;	-40.22;		0.1
103M;	1;	-40.4;		0.1
104M;	1;	-40.64;		0.1
105M;	1;	-40.56;		0.1
106M;	1;	-39.84;		0.1
107M;	1;	-38.26;		0.1
108M;	1;	-36.54;		0.1
109M;	1;	-35.33;		0.1
110M;	1;	-35.26;		0.1
111M;	1;	-35.7;		0.1
112M;	1;	-36.31;		0.1
113M;	1;	-36.75;		0.1
114M;	1;	-37.06;		0.1
115M;	1;	-37.3;		0.1
116M;	1;	-37.57;		0.1
117M;	1;	-37.78;		0.1
118M;	1;	-37.92;		0.1
119M;	1;  -38.22;		0.1
120M;	1;	-38.48;		0.1
121M;	1;	-38.74;		0.1
122M;	1;	-39.13;		0.1
123M;	1;	-39.41;		0.1
124M;	1;	-39.72;		0.1
125M;	1;	-39.95;		0.1
126M;	1;	-40.38;		0.1
127M;	1;	-40.71;		0.1
128M;	1;	-40.85;		0.1
129M;	1;	-41.06;		0.1
130M;	1;	-41.17;		0.1
131M;	1;	-41.16;		0.1
132M;	1;	-41.08;		0.1
133M;	1;	-41.14;		0.1
134M;	1;	-41.46;		0.1
135M;	1;	-41.61;		0.1
136M;	1;	-41.64;		0.1
137M;	1;	-41.73;		0.1
138M;	1;	-41.82;		0.1
139M;	1;  -41.99;		0.1
140M;	1;	-42.25;		0.1
141M;	1;	-42.45;		0.1
142M;	1;	-42.52;		0.1
143M;	1;	-42.75;		0.1
144M;	1;	-42.86;		0.1
145M;	1;	-42.92;		0.1
146M;	1;	-42.98;		0.1
147M;	1;	-42.95;		0.1
148M;	1;	-42.81;		0.1
149M;	1;	-42.53;		0.1
150M;	1;	-42.36;		0.1
151M;	1;	-42.15;		0.1
152M;	1;	-41.88;		0.1
153M;	1;	-41.74;		0.1
154M;	1;	-41.5;		0.1
155M;	1;	-41.23;		0.1
156M;	1;	-40.97;		0.1
157M;	1;	-40.82;		0.1
158M;	1;	-40.71;		0.1
159M;	1;  -40.65;		0.1
160M;	1;	-40.75;		0.1
161M;	1;	-40.88;		0.1
162M;	1;	-41.12;		0.1
163M;	1;	-41.5;		0.1
164M;	1;	-42.07;		0.1
165M;	1;	-42.72;		0.1
166M;	1;	-43.36;		0.1
167M;	1;	-44.07;		0.1
168M;	1;	-44.65;		0.1
169M;	1;	-45.16;		0.1
170M;	1;	-45.68;		0.1
171M;	1;	-46.19;		0.1
172M;	1;	-46.59;		0.1
173M;	1;	-46.91;		0.1
174M;	1;	-47.27;		0.1
175M;	1;	-47.52;		0.1
176M;	1;	-47.66;		0.1
177M;	1;	-47.78;		0.1
178M;	1;	-47.83;		0.1
179M;	1;  -47.76;		0.1
180M;	1;	-47.61;		0.1
181M;	1;	-47.51;		0.1
182M;	1;	-47.29;		0.1
183M;	1;	-47;		0.1
184M;	1;	-46.73;		0.1
185M;	1;	-46.41;		0.1
186M;	1;	-46.06;		0.1
187M;	1;	-45.69;		0.1
188M;	1;	-45.35;		0.1
189M;	1;	-44.98;		0.1
190M;	1;	-44.62;		0.1
191M;	1;	-44.31;		0.1
192M;	1;	-43.97;		0.1
193M;	1;	-43.64;		0.1
194M;	1;	-43.41;		0.1
195M;	1;	-43.27;		0.1
196M;	1;	-43.09;		0.1
197M;	1;	-42.95;		0.1
198M;	1;	-42.84;		0.1
199M;	1;  -42.79;		0.1
200M;	1;	-42.76;		0.1
201M;	1;	-42.8;		0.1
202M;	1;	-42.87;		0.1
203M;	1;	-42.97;		0.1
204M;	1;	-43.07;		0.1
205M;	1;	-43.29;		0.1
206M;	1;	-43.52;		0.1
207M;	1;	-43.7;		0.1
208M;	1;	-43.93;		0.1
209M;	1;	-44.04;		0.1
210M;	1;	-44.05;		0.1
211M;	1;	-43.97;		0.1
212M;	1;	-43.96;		0.1
213M;	1;	-43.94;		0.1
214M;	1;	-43.92;		0.1
215M;	1;	-43.96;		0.1
216M;	1;	-43.95;		0.1
217M;	1;	-43.92;		0.1
218M;	1;	-43.89;		0.1
219M;	1;  -43.87;		0.1
220M;	1;	-43.88;		0.1
221M;	1;	-43.93;		0.1
222M;	1;	-44.02;		0.1
223M;	1;	-43.95;		0.1
224M;	1;	-43.77;		0.1
225M;	1;	-43.49;		0.1
226M;	1;	-43.1;		0.1
227M;	1;	-42.513;	0.1
228M;	1;	-41.97;		0.1
229M;	1;	-41.35;		0.1
230M;	1;	-40.684;	0.1
0.15M;	1.8;	-35.15;		0.1
1M;		1.8;	-35.14;		0.1
2M;		1.8;	-35.04;		0.1
3M;		1.8;	-35.14;		0.1
4M;		1.8;	-34.93;		0.1
5M;		1.8;	-34.5;		0.1
6M;		1.8;	-34.02;		0.1
7M;		1.8;	-33.57;		0.1
8M;		1.8;	-32.87;		0.1
9M;		1.8;	-32.09;		0.1
10M;	1.8;	-31.26;		0.1
11M;	1.8;	-30.19;		0.1
12M;	1.8;	-29.06;		0.1
13M;	1.8;	-27.84;		0.1
14M;	1.8;	-26.6;		0.1
15M;	1.8;	-25.62;		0.1
16M;	1.8;	-25.16;		0.1
17M;	1.8;	-25.6;		0.1
18M;	1.8;	-26.75;		0.1
19M;	1.8;  	-28.29;		0.1
20M;	1.8;	-29.99;		0.1
21M;	1.8;	-31.5;		0.1
22M;	1.8;	-32.95;		0.1
23M;	1.8;	-34.15;		0.1
24M;	1.8;	-35.18;		0.1
25M;	1.8;	-36.12;		0.1
26M;	1.8;	-36.84;		0.1
27M;	1.8;	-37.55;		0.1
28M;	1.8;	-38.04;		0.1
29M;	1.8;	-38.51;		0.1
30M;	1.8;	-38.98;		0.1
31M;	1.8;	-39.09;		0.1
32M;	1.8;	-39.27;		0.1
33M;	1.8;	-39.44;		0.1
34M;	1.8;	-39.48;		0.1
35M;	1.8;	-39.41;		0.1
36M;	1.8;	-39.31;		0.1
37M;	1.8;	-39.23;		0.1
38M;	1.8;	-39.09;		0.1
39M;	1.8;  	-38.92;		0.1
40M;	1.8;	-38.85;		0.1
41M;	1.8;	-38.75;		0.1
42M;	1.8;	-38.65;		0.1
43M;	1.8;	-38.59;		0.1
44M;	1.8;	-38.55;		0.1
45M;	1.8;	-38.52;		0.1
46M;	1.8;	-38.44;		0.1
47M;	1.8;	-38.43;		0.1
48M;	1.8;	-38.42;		0.1
49M;	1.8;	-38.34;		0.1
50M;	1.8;	-38.35;		0.1
51M;	1.8;	-38.34;		0.1
52M;	1.8;	-38.35;		0.1
53M;	1.8;	-38.34;		0.1
54M;	1.8;	-38.43;		0.1
55M;	1.8;	-38.44;		0.1
56M;	1.8;	-38.45;		0.1
57M;	1.8;	-38.59;		0.1
58M;	1.8;	-38.68;		0.1
59M;	1.8;  	-38.68;		0.1
60M;	1.8;	-38.7;		0.1
61M;	1.8;	-38.65;		0.1
62M;	1.8;	-38.27;		0.1
63M;	1.8;	-37.46;		0.1
64M;	1.8;	-37.22;		0.1
65M;	1.8;	-37.49;		0.1
66M;	1.8;	-37.34;		0.1
67M;	1.8;	-37.43;		0.1
68M;	1.8;	-38.03;		0.1
69M;	1.8;	-38.78;		0.1
70M;	1.8;	-39.58;		0.1
71M;	1.8;	-40.27;		0.1
72M;	1.8;	-40.58;		0.1
73M;	1.8;	-40.42;		0.1
74M;	1.8;	-39.94;		0.1
75M;	1.8;	-39.48;		0.1
76M;	1.8;	-39.25;		0.1
77M;	1.8;	-39.05;		0.1
78M;	1.8;	-38.82;		0.1
79M;	1.8;  	-39.01;		0.1
80M;	1.8;	-39.2;		0.1
81M;	1.8;	-39.01;		0.1
82M;	1.8;	-38.73;		0.1
83M;	1.8;	-38.63;		0.1
84M;	1.8;	-37.52;		0.1
85M;	1.8;	-36.87;		0.1
86M;	1.8;	-36.71;		0.1
87M;	1.8;	-36.46;		0.1
88M;	1.8;	-36.14;		0.1
89M;	1.8;	-35.84;		0.1
90M;	1.8;	-35.5;		0.1
91M;	1.8;	-35.24;		0.1
92M;	1.8;	-35.06;		0.1
93M;	1.8;	-34.96;		0.1
94M;	1.8;	-34.95;		0.1
95M;	1.8;	-35.21;		0.1
96M;	1.8;	-35.44;		0.1
97M;	1.8;	-35.62;		0.1
98M;	1.8;	-35.77;		0.1
99M;	1.8;  	-35.67;		0.1
100M;	1.8;	-35.32;		0.1
101M;	1.8;	-35.1;		0.1
102M;	1.8;	-35.12;		0.1
103M;	1.8;	-35.3;		0.1
104M;	1.8;	-35.54;		0.1
105M;	1.8;	-35.46;		0.1
106M;	1.8;	-34.74;		0.1
107M;	1.8;	-33.16;		0.1
108M;	1.8;	-31.44;		0.1
109M;	1.8;	-30.23;		0.1
110M;	1.8;	-30.16;		0.1
111M;	1.8;	-30.6;		0.1
112M;	1.8;	-31.21;		0.1
113M;	1.8;	-31.65;		0.1
114M;	1.8;	-31.96;		0.1
115M;	1.8;	-32.2;		0.1
116M;	1.8;	-32.47;		0.1
117M;	1.8;	-32.68;		0.1
118M;	1.8;	-32.82;		0.1
119M;	1.8;  	-33.12;		0.1
120M;	1.8;	-33.38;		0.1
121M;	1.8;	-33.64;		0.1
122M;	1.8;	-34.03;		0.1
123M;	1.8;	-34.31;		0.1
124M;	1.8;	-34.62;		0.1
125M;	1.8;	-34.85;		0.1
126M;	1.8;	-35.28;		0.1
127M;	1.8;	-35.61;		0.1
128M;	1.8;	-35.75;		0.1
129M;	1.8;	-35.96;		0.1
130M;	1.8;	-36.07;		0.1
131M;	1.8;	-36.06;		0.1
132M;	1.8;	-35.98;		0.1
133M;	1.8;	-36.04;		0.1
134M;	1.8;	-36.36;		0.1
135M;	1.8;	-36.51;		0.1
136M;	1.8;	-36.54;		0.1
137M;	1.8;	-36.63;		0.1
138M;	1.8;	-36.72;		0.1
139M;	1.8; 	-36.89;		0.1
140M;	1.8;	-37.15;		0.1
141M;	1.8;	-37.35;		0.1
142M;	1.8;	-37.42;		0.1
143M;	1.8;	-37.65;		0.1
144M;	1.8;	-37.76;		0.1
145M;	1.8;	-37.82;		0.1
146M;	1.8;	-37.88;		0.1
147M;	1.8;	-37.85;		0.1
148M;	1.8;	-37.71;		0.1
149M;	1.8;	-37.43;		0.1
150M;	1.8;	-37.26;		0.1
151M;	1.8;	-37.05;		0.1
152M;	1.8;	-36.78;		0.1
153M;	1.8;	-36.64;		0.1
154M;	1.8;	-36.4;		0.1
155M;	1.8;	-36.13;		0.1
156M;	1.8;	-35.87;		0.1
157M;	1.8;	-35.72;		0.1
158M;	1.8;	-35.61;		0.1
159M;	1.8;  	-35.55;		0.1
160M;	1.8;	-35.65;		0.1
161M;	1.8;	-35.78;		0.1
162M;	1.8;	-36.02;		0.1
163M;	1.8;	-36.4;		0.1
164M;	1.8;	-36.97;		0.1
165M;	1.8;	-37.62;		0.1
166M;	1.8;	-38.26;		0.1
167M;	1.8;	-38.97;		0.1
168M;	1.8;	-39.55;		0.1
169M;	1.8;	-40.06;		0.1
170M;	1.8;	-40.58;		0.1
171M;	1.8;	-41.09;		0.1
172M;	1.8;	-41.49;		0.1
173M;	1.8;	-41.81;		0.1
174M;	1.8;	-42.17;		0.1
175M;	1.8;	-42.42;		0.1
176M;	1.8;	-42.56;		0.1
177M;	1.8;	-42.68;		0.1
178M;	1.8;	-42.73;		0.1
179M;	1.8;  	-42.66;		0.1
180M;	1.8;	-42.51;		0.1
181M;	1.8;	-42.41;		0.1
182M;	1.8;	-42.19;		0.1
183M;	1.8;	-41.9;		0.1
184M;	1.8;	-41.63;		0.1
185M;	1.8;	-41.31;		0.1
186M;	1.8;	-40.96;		0.1
187M;	1.8;	-40.59;		0.1
188M;	1.8;	-40.25;		0.1
189M;	1.8;	-39.88;		0.1
190M;	1.8;	-39.52;		0.1
191M;	1.8;	-39.21;		0.1
192M;	1.8;	-38.87;		0.1
193M;	1.8;	-38.54;		0.1
194M;	1.8;	-38.31;		0.1
195M;	1.8;	-38.17;		0.1
196M;	1.8;	-37.99;		0.1
197M;	1.8;	-37.85;		0.1
198M;	1.8;	-37.74;		0.1
199M;	1.8;  	-37.69;		0.1
200M;	1.8;	-37.66;		0.1
201M;	1.8;	-37.7;		0.1
202M;	1.8;	-37.77;		0.1
203M;	1.8;	-37.87;		0.1
204M;	1.8;	-37.97;		0.1
205M;	1.8;	-38.19;		0.1
206M;	1.8;	-38.42;		0.1
207M;	1.8;	-38.6;		0.1
208M;	1.8;	-38.83;		0.1
209M;	1.8;	-38.94;		0.1
210M;	1.8;	-38.95;		0.1
211M;	1.8;	-38.87;		0.1
212M;	1.8;	-38.86;		0.1
213M;	1.8;	-38.84;		0.1
214M;	1.8;	-38.82;		0.1
215M;	1.8;	-38.86;		0.1
216M;	1.8;	-38.85;		0.1
217M;	1.8;	-38.82;		0.1
218M;	1.8;	-38.79;		0.1
219M;	1.8;  	-38.77;		0.1
220M;	1.8;	-38.78;		0.1
221M;	1.8;	-38.83;		0.1
222M;	1.8;	-38.92;		0.1
223M;	1.8;	-38.85;		0.1
224M;	1.8;	-38.67;		0.1
225M;	1.8;	-38.39;		0.1
226M;	1.8;	-38;		0.1
227M;	1.8;	-37.413;	0.1
228M;	1.8;	-36.87;		0.1
229M;	1.8;	-36.25;		0.1
230M;	1.8;	-35.584;	0.1
0.15M;	3;	-30.66;		0.1
1M;		3;	-30.65;		0.1
2M;		3;	-30.55;		0.1
3M;		3;	-30.65;		0.1
4M;		3;	-30.44;		0.1
5M;		3;	-30.01;		0.1
6M;		3;	-29.53;		0.1
7M;		3;	-29.08;		0.1
8M;		3;	-28.38;		0.1
9M;		3;	-27.60;		0.1
10M;	3;	-26.77;		0.1
11M;	3;	-25.70;		0.1
12M;	3;	-24.57;		0.1
13M;	3;	-23.35;		0.1
14M;	3;	-22.11;		0.1
15M;	3;	-21.13;		0.1
16M;	3;	-20.67;		0.1
17M;	3;	-21.11;		0.1
18M;	3;	-22.26;		0.1
19M;	3;  -23.80;		0.1
20M;	3;	-25.50;		0.1
21M;	3;	-27.01;		0.1
22M;	3;	-28.46;		0.1
23M;	3;	-29.66;		0.1
24M;	3;	-30.69;		0.1
25M;	3;	-31.63;		0.1
26M;	3;	-32.35;		0.1
27M;	3;	-33.06;		0.1
28M;	3;	-33.55;		0.1
29M;	3;	-34.02;		0.1
30M;	3;	-34.49;		0.1
31M;	3;	-34.60;		0.1
32M;	3;	-34.78;		0.1
33M;	3;	-34.95;		0.1
34M;	3;	-34.99;		0.1
35M;	3;	-34.92;		0.1
36M;	3;	-34.82;		0.1
37M;	3;	-34.74;		0.1
38M;	3;	-34.60;		0.1
39M;	3;  -34.43;		0.1
40M;	3;	-34.36;		0.1
41M;	3;	-34.26;		0.1
42M;	3;	-34.16;		0.1
43M;	3;	-34.10;		0.1
44M;	3;	-34.06;		0.1
45M;	3;	-34.03;		0.1
46M;	3;	-33.95;		0.1
47M;	3;	-33.94;		0.1
48M;	3;	-33.93;		0.1
49M;	3;	-33.85;		0.1
50M;	3;	-33.86;		0.1
51M;	3;	-33.85;		0.1
52M;	3;	-33.86;		0.1
53M;	3;	-33.85;		0.1
54M;	3;	-33.94;		0.1
55M;	3;	-33.95;		0.1
56M;	3;	-33.96;		0.1
57M;	3;	-34.10;		0.1
58M;	3;	-34.19;		0.1
59M;	3;  -34.19;		0.1
60M;	3;	-34.21;		0.1
61M;	3;	-34.16;		0.1
62M;	3;	-33.78;		0.1
63M;	3;	-32.97;		0.1
64M;	3;	-32.73;		0.1
65M;	3;	-33.00;		0.1
66M;	3;	-32.85;		0.1
67M;	3;	-32.94;		0.1
68M;	3;	-33.54;		0.1
69M;	3;	-34.29;		0.1
70M;	3;	-35.09;		0.1
71M;	3;	-35.78;		0.1
72M;	3;	-36.09;		0.1
73M;	3;	-35.93;		0.1
74M;	3;	-35.45;		0.1
75M;	3;	-34.99;		0.1
76M;	3;	-34.76;		0.1
77M;	3;	-34.56;		0.1
78M;	3;	-34.33;		0.1
79M;	3;  -34.52;		0.1
80M;	3;	-34.71;		0.1
81M;	3;	-34.52;		0.1
82M;	3;	-34.24;		0.1
83M;	3;	-34.14;		0.1
84M;	3;	-33.03;		0.1
85M;	3;	-32.38;		0.1
86M;	3;	-32.22;		0.1
87M;	3;	-31.97;		0.1
88M;	3;	-31.65;		0.1
89M;	3;	-31.35;		0.1
90M;	3;	-31.01;		0.1
91M;	3;	-30.75;		0.1
92M;	3;	-30.57;		0.1
93M;	3;	-30.47;		0.1
94M;	3;	-30.46;		0.1
95M;	3;	-30.72;		0.1
96M;	3;	-30.95;		0.1
97M;	3;	-31.13;		0.1
98M;	3;	-31.28;		0.1
99M;	3;  -31.18;		0.1
100M;	3;	-30.83;		0.1
101M;	3;	-30.61;		0.1
102M;	3;	-30.63;		0.1
103M;	3;	-30.81;		0.1
104M;	3;	-31.05;		0.1
105M;	3;	-30.97;		0.1
106M;	3;	-30.25;		0.1
107M;	3;	-28.67;		0.1
108M;	3;	-26.95;		0.1
109M;	3;	-25.74;		0.1
110M;	3;	-25.67;		0.1
111M;	3;	-26.11;		0.1
112M;	3;	-26.72;		0.1
113M;	3;	-27.16;		0.1
114M;	3;	-27.47;		0.1
115M;	3;	-27.71;		0.1
116M;	3;	-27.98;		0.1
117M;	3;	-28.19;		0.1
118M;	3;	-28.33;		0.1
119M;	3;  -28.63;		0.1
120M;	3;	-28.89;		0.1
121M;	3;	-29.15;		0.1
122M;	3;	-29.54;		0.1
123M;	3;	-29.82;		0.1
124M;	3;	-30.13;		0.1
125M;	3;	-30.36;		0.1
126M;	3;	-30.79;		0.1
127M;	3;	-31.12;		0.1
128M;	3;	-31.26;		0.1
129M;	3;	-31.47;		0.1
130M;	3;	-31.58;		0.1
131M;	3;	-31.57;		0.1
132M;	3;	-31.49;		0.1
133M;	3;	-31.55;		0.1
134M;	3;	-31.87;		0.1
135M;	3;	-32.02;		0.1
136M;	3;	-32.05;		0.1
137M;	3;	-32.14;		0.1
138M;	3;	-32.23;		0.1
139M;	3;  -32.40;		0.1
140M;	3;	-32.66;		0.1
141M;	3;	-32.86;		0.1
142M;	3;	-32.93;		0.1
143M;	3;	-33.16;		0.1
144M;	3;	-33.27;		0.1
145M;	3;	-33.33;		0.1
146M;	3;	-33.39;		0.1
147M;	3;	-33.36;		0.1
148M;	3;	-33.22;		0.1
149M;	3;	-32.94;		0.1
150M;	3;	-32.77;		0.1
151M;	3;	-32.56;		0.1
152M;	3;	-32.29;		0.1
153M;	3;	-32.15;		0.1
154M;	3;	-31.91;		0.1
155M;	3;	-31.64;		0.1
156M;	3;	-31.38;		0.1
157M;	3;	-31.23;		0.1
158M;	3;	-31.12;		0.1
159M;	3;  -31.06;		0.1
160M;	3;	-31.16;		0.1
161M;	3;	-31.29;		0.1
162M;	3;	-31.53;		0.1
163M;	3;	-31.91;		0.1
164M;	3;	-32.48;		0.1
165M;	3;	-33.13;		0.1
166M;	3;	-33.77;		0.1
167M;	3;	-34.48;		0.1
168M;	3;	-35.06;		0.1
169M;	3;	-35.57;		0.1
170M;	3;	-36.09;		0.1
171M;	3;	-36.60;		0.1
172M;	3;	-37.00;		0.1
173M;	3;	-37.32;		0.1
174M;	3;	-37.68;		0.1
175M;	3;	-37.93;		0.1
176M;	3;	-38.07;		0.1
177M;	3;	-38.19;		0.1
178M;	3;	-38.24;		0.1
179M;	3;  -38.17;		0.1
180M;	3;	-38.02;		0.1
181M;	3;	-37.92;		0.1
182M;	3;	-37.70;		0.1
183M;	3;	-37.41;		0.1
184M;	3;	-37.14;		0.1
185M;	3;	-36.82;		0.1
186M;	3;	-36.47;		0.1
187M;	3;	-36.10;		0.1
188M;	3;	-35.76;		0.1
189M;	3;	-35.39;		0.1
190M;	3;	-35.03;		0.1
191M;	3;	-34.72;		0.1
192M;	3;	-34.38;		0.1
193M;	3;	-34.05;		0.1
194M;	3;	-33.82;		0.1
195M;	3;	-33.68;		0.1
196M;	3;	-33.50;		0.1
197M;	3;	-33.36;		0.1
198M;	3;	-33.25;		0.1
199M;	3;  -33.20;		0.1
200M;	3;	-33.17;		0.1
201M;	3;	-33.21;		0.1
202M;	3;	-33.28;		0.1
203M;	3;	-33.38;		0.1
204M;	3;	-33.48;		0.1
205M;	3;	-33.70;		0.1
206M;	3;	-33.93;		0.1
207M;	3;	-34.11;		0.1
208M;	3;	-34.34;		0.1
209M;	3;	-34.45;		0.1
210M;	3;	-34.46;		0.1
211M;	3;	-34.38;		0.1
212M;	3;	-34.37;		0.1
213M;	3;	-34.35;		0.1
214M;	3;	-34.33;		0.1
215M;	3;	-34.37;		0.1
216M;	3;	-34.36;		0.1
217M;	3;	-34.33;		0.1
218M;	3;	-34.30;		0.1
219M;	3;  -34.28;		0.1
220M;	3;	-34.29;		0.1
221M;	3;	-34.34;		0.1
222M;	3;	-34.43;		0.1
223M;	3;	-34.36;		0.1
224M;	3;	-34.18;		0.1
225M;	3;	-33.90;		0.1
226M;	3;	-33.51;		0.1
227M;	3;	-32.92;		0.1
228M;	3;	-32.38;		0.1
229M;	3;	-31.76;		0.1
230M;	3;	-31.09;		0.1